{
  "type": "object",
  "$schema": "http://json-schema.org/draft-04/schema",
  "title": "MSD Daily Stock Status Entry",
  "description": "A single MSD daily stock status value",
  "properties": {
    "id": {
      "type": "string",
      "title": "id"
    },
    "plant": {
      "type": "string",
      "title": "plant"
    },
    "plantNumber": {
      "type": "string",
      "title": "plantNumber"
    },
    "unitOfMeasure": {
      "type": "string",
      "title": "unitOfMeasure"
    },
    "partDescription": {
      "type": "string",
      "title": "partDescription"
    },
    "date": {
      "type": "string",
      "title": "date"
    },
    "monthOfStock": {
      "type": "integer",
      "title": "monthOfStock"
    },
    "onHandQuantity": {
      "type": "string",
      "title": "onHandQuantity"
    }
  },
  "required": [
    "plant",
    "partNumber",
    "unitOfMeasure",
    "partDescription",
    "date",
    "monthOfStock",
    "onHandQuantity"
  ]
}
